Group and summarize
…
## # A tibble: 1  1
##      delay
##      <dbl>
## 1 12.63907

(Well come back to what that na.rm = TRUE means very shortly.)

summarise() is not terribly useful unless we pair it with group_by(). This changes the unit of analysis from the complete dataset to individual groups. Then, when you use the dplyr verbs on a grouped data frame theyll be automatically applied by group. For example, if we applied exactly the same code to a data frame grouped by date, we get the average delay per date:

by_day <- group_by(flights, year, month, day)
summarise(by_day, delay = mean(dep_delay, na.rm = TRUE))

## Source: local data frame [365 x 4]
## Groups: year, month [?]
## 
##     year month   day     delay
##    <int> <int> <int>     <dbl>
## 1   2013     1     1 11.548926
## 2   2013     1     2 13.858824
## 3   2013     1     3 10.987832
## 4   2013     1     4  8.951595
## 5   2013     1     5  5.732218
## 6   2013     1     6  7.148014
## 7   2013     1     7  5.417204
## 8   2013     1     8  2.553073
## 9   2013     1     9  2.276477
## 10  2013     1    10  2.844995
## # ... with 355 more rows
…
This focuses on the transformations, not whats being transformed, which makes the code easier to read. You can read it as a series of imperative statements: group, then summarise, then filter. As suggested by this reading, a good way to pronounce %>% when reading code is then.

Behind the scenes, x %>% f(y) turns into f(x, y), and x %>% f(y) %>% g(z) turns into g(f(x, y), z) and so on. You can use the pipe to rewrite multiple operations in a way that you can read left-to-right, top-to-bottom. Well use piping frequently from now on because it considerably improves the readability of code, and well come back to it in more detail in [pipes].

Working with the pipe is one of the key criteria for belonging to the tidyverse. The only exception is ggplot2: it was written before the pipe was discovered. Unfortunately, the next iteration of ggplot2, ggvis, which does use the pipe, isnt quite ready for prime time yet.

Missing values

You may have wondered about the na.rm argument we used above. What happens if we dont set it?

flights %>% 
  group_by(year, month, day) %>% 
  summarise(mean = mean(dep_delay))

## Source: local data frame [365 x 4]
## Groups: year, month [?]
## 
##     year month   day  mean
##    <int> <int> <int> <dbl>
## 1   2013     1     1    NA
## 2   2013     1     2    NA
## 3   2013     1     3    NA
## 4   2013     1     4    NA
## 5   2013     1     5    NA
## 6   2013     1     6    NA
## 7   2013     1     7    NA
## 8   2013     1     8    NA
## 9   2013     1     9    NA
## 10  2013     1    10    NA
## # ... with 355 more rows

We get a lot of missing values! Thats because aggregation functions obey the usual rule of missing values: if theres any missing value in the input, the output will be a missing value. Fortunately, all aggregation functions have an na.rm argument which removes the missing values prior to computation:

flights %>% 
  group_by(year, month, day) %>% 
  summarise(mean = mean(dep_delay, na.rm = TRUE))

## Source: local data frame [365 x 4]
## Groups: year, month [?]
## 
##     year month   day      mean
##    <int> <int> <int>     <dbl>
## 1   2013     1     1 11.548926
## 2   2013     1     2 13.858824
## 3   2013     1     3 10.987832
## 4   2013     1     4  8.951595
## 5   2013     1     5  5.732218
## 6   2013     1     6  7.148014
## 7   2013     1     7  5.417204
## 8   2013     1     8  2.553073
## 9   2013     1     9  2.276477
## 10  2013     1    10  2.844995
## # ... with 355 more rows

In this case, where missing values represent cancelled flights, we could also tackle the problem by first removing the cancelled flights. Well save this dataset so we can reuse in the next few examples.

not_cancelled <- flights %>% 
  filter(!is.na(dep_delay), !is.na(arr_delay))

not_cancelled %>% 
  group_by(year, month, day) %>% 
  summarise(mean = mean(dep_delay))

## Source: local data frame [365 x 4]
## Groups: year, month [?]
## 
##     year month   day      mean
##    <int> <int> <int>     <dbl>
## 1   2013     1     1 11.435620
## 2   2013     1     2 13.677802
## 3   2013     1     3 10.907778
## 4   2013     1     4  8.965859
## 5   2013     1     5  5.732218
## 6   2013     1     6  7.145959
## 7   2013     1     7  5.417204
## 8   2013     1     8  2.558296
## 9   2013     1     9  2.301232
## 10  2013     1    10  2.844995
## # ... with 355 more rows
…
Just using means, counts, and sum can get you a long way, but R provides many other useful summary functions:

Measures of location: weve used mean(x), but median(x) is also useful. The mean is the sum divided by the length; the median is a value where 50% of x is above it, and 50% is below it.

Its sometimes useful to combine aggregation with logical subsetting. We havent talked about this sort of subsetting yet, but youll learn more about it in [subsetting].

not_cancelled %>% 
  group_by(year, month, day) %>% 
  summarise(
    avg_delay1 = mean(arr_delay),
    avg_delay2 = mean(arr_delay[arr_delay > 0]) # the average positive delay
  )

## Source: local data frame [365 x 5]
## Groups: year, month [?]
## 
##     year month   day avg_delay1 avg_delay2
##    <int> <int> <int>      <dbl>      <dbl>
## 1   2013     1     1 12.6510229   32.48156
## 2   2013     1     2 12.6928879   32.02991
## 3   2013     1     3  5.7333333   27.66087
## 4   2013     1     4 -1.9328194   28.30976
## 5   2013     1     5 -1.5258020   22.55882
## 6   2013     1     6  4.2364294   24.37270
## 7   2013     1     7 -4.9473118   27.76132
## 8   2013     1     8 -3.2275785   20.78909
## 9   2013     1     9 -0.2642777   25.63415
## 10  2013     1    10 -5.8988159   27.34545
## # ... with 355 more rows
…
Measures of rank: min(x), quantile(x, 0.25), max(x). Quantiles are a generalisation of the median. For example, quantile(x, 0.25) will find a value of x that is greater than 25% of the values, and less than the remaining 75%.

# When do the first and last flights leave each day?
not_cancelled %>% 
  group_by(year, month, day) %>% 
  summarise(
    first = min(dep_time),
    last = max(dep_time)
  )

## Source: local data frame [365 x 5]
## Groups: year, month [?]
## 
##     year month   day first  last
##    <int> <int> <int> <int> <int>
## 1   2013     1     1   517  2356
## 2   2013     1     2    42  2354
## 3   2013     1     3    32  2349
## 4   2013     1     4    25  2358
## 5   2013     1     5    14  2357
## 6   2013     1     6    16  2355
## 7   2013     1     7    49  2359
## 8   2013     1     8   454  2351
## 9   2013     1     9     2  2252
## 10  2013     1    10     3  2320
## # ... with 355 more rows

Measures of position: first(x), nth(x, 2), last(x). These work similarly to x[1], x[2], and x[length(x)] but let you set a default value if that position does not exist (i.e.youre trying to get the 3rd element from a group that only has two elements). For example, we can find the first and last departure for each day:

not_cancelled %>% 
  group_by(year, month, day) %>% 
  summarise(
    first_dep = first(dep_time), 
    last_dep = last(dep_time)
  )

## Source: local data frame [365 x 5]
## Groups: year, month [?]
## 
##     year month   day first_dep last_dep
##    <int> <int> <int>     <int>    <int>
## 1   2013     1     1       517     2356
## 2   2013     1     2        42     2354
## 3   2013     1     3        32     2349
## 4   2013     1     4        25     2358
## 5   2013     1     5        14     2357
## 6   2013     1     6        16     2355
## 7   2013     1     7        49     2359
## 8   2013     1     8       454     2351
## 9   2013     1     9         2     2252
## 10  2013     1    10         3     2320
## # ... with 355 more rows

These functions are complementary to filtering on ranks. Filtering gives you all variables, with each observation in a separate row:

not_cancelled %>% 
  group_by(year, month, day) %>% 
  mutate(r = min_rank(desc(dep_time))) %>% 
  filter(r %in% range(r))

## Source: local data frame [770 x 20]
## Groups: year, month, day [365]
## 
##     year month   day dep_time sched_dep_time dep_delay arr_time
##    <int> <int> <int>    <int>          <int>     <dbl>    <int>
## 1   2013     1     1      517            515         2      830
## 2   2013     1     1     2356           2359        -3      425
## 3   2013     1     2       42           2359        43      518
## 4   2013     1     2     2354           2359        -5      413
## 5   2013     1     3       32           2359        33      504
## 6   2013     1     3     2349           2359       -10      434
## 7   2013     1     4       25           2359        26      505
## 8   2013     1     4     2358           2359        -1      429
## 9   2013     1     4     2358           2359        -1      436
## 10  2013     1     5       14           2359        15      503
## # ... with 760 more rows, and 13 more variables: sched_arr_time <int>,
## #   arr_delay <dbl>, carrier <chr>, flight <int>, tailnum <chr>,
## #   origin <chr>, dest <chr>, air_time <dbl>, distance <dbl>, hour <dbl>,
## #   minute <dbl>, time_hour <dttm>, r <int>
…
Counts and proportions of logical values: sum(x > 10), mean(y == 0). When used with numeric functions, TRUE is converted to 1 and FALSE to 0. This makes sum() and mean() very useful: sum(x) gives the number of TRUEs in x, and mean(x) gives the proportion.

# How many flights left before 5am? (these usually indicate delayed
# flights from the previous day)
not_cancelled %>% 
  group_by(year, month, day) %>% 
  summarise(n_early = sum(dep_time < 500))

## Source: local data frame [365 x 4]
## Groups: year, month [?]
## 
##     year month   day n_early
##    <int> <int> <int>   <int>
## 1   2013     1     1       0
## 2   2013     1     2       3
## 3   2013     1     3       4
## 4   2013     1     4       3
## 5   2013     1     5       3
## 6   2013     1     6       2
## 7   2013     1     7       2
## 8   2013     1     8       1
## 9   2013     1     9       3
## 10  2013     1    10       3
## # ... with 355 more rows

# What proportion of flights are delayed by more than an hour?
not_cancelled %>% 
  group_by(year, month, day) %>% 
  summarise(hour_perc = mean(arr_delay > 60))

## Source: local data frame [365 x 4]
## Groups: year, month [?]
## 
##     year month   day  hour_perc
##    <int> <int> <int>      <dbl>
## 1   2013     1     1 0.07220217
## 2   2013     1     2 0.08512931
## 3   2013     1     3 0.05666667
## 4   2013     1     4 0.03964758
## 5   2013     1     5 0.03486750
## 6   2013     1     6 0.04704463
## 7   2013     1     7 0.03333333
## 8   2013     1     8 0.02130045
## 9   2013     1     9 0.02015677
## 10  2013     1    10 0.01829925
## # ... with 355 more rows

Grouping by multiple variables

When you group by multiple variables, each summary peels off one level of the grouping. That makes it easy to progressively roll up a dataset:

daily <- group_by(flights, year, month, day)
(per_day   <- summarise(daily, flights = n()))

## Source: local data frame [365 x 4]
## Groups: year, month [?]
## 
##     year month   day flights
##    <int> <int> <int>   <int>
## 1   2013     1     1     842
## 2   2013     1     2     943
## 3   2013     1     3     914
## 4   2013     1     4     915
## 5   2013     1     5     720
## 6   2013     1     6     832
## 7   2013     1     7     933
## 8   2013     1     8     899
## 9   2013     1     9     902
## 10  2013     1    10     932
## # ... with 355 more rows
…
Find all groups bigger than a threshold:

popular_dests <- flights %>% 
  group_by(dest) %>% 
  filter(n() > 365)
popular_dests

## Source: local data frame [332,577 x 19]
## Groups: dest [77]
## 
##     year month   day dep_time sched_dep_time dep_delay arr_time
##    <int> <int> <int>    <int>          <int>     <dbl>    <int>
## 1   2013     1     1      517            515         2      830
## 2   2013     1     1      533            529         4      850
## 3   2013     1     1      542            540         2      923
## 4   2013     1     1      544            545        -1     1004
## 5   2013     1     1      554            600        -6      812
## 6   2013     1     1      554            558        -4      740
## 7   2013     1     1      555            600        -5      913
## 8   2013     1     1      557            600        -3      709
## 9   2013     1     1      557            600        -3      838
## 10  2013     1     1      558            600        -2      753
## # ... with 332,567 more rows, and 12 more variables: sched_arr_time <int>,
## #   arr_delay <dbl>, carrier <chr>, flight <int>, tailnum <chr>,
## #   origin <chr>, dest <chr>, air_time <dbl>, distance <dbl>, hour <dbl>,
## #   minute <dbl>, time_hour <dttm>

Standardise to compute per group metrics:

popular_dests %>% 
  filter(arr_delay > 0) %>% 
  mutate(prop_delay = arr_delay / sum(arr_delay)) %>% 
  select(year:day, dest, arr_delay, prop_delay)

## Source: local data frame [131,106 x 6]
## Groups: dest [77]
## 
##     year month   day  dest arr_delay   prop_delay
##    <int> <int> <int> <chr>     <dbl>        <dbl>
## 1   2013     1     1   IAH        11 1.106740e-04
## 2   2013     1     1   IAH        20 2.012255e-04
## 3   2013     1     1   MIA        33 2.350026e-04
## 4   2013     1     1   ORD        12 4.239594e-05
## 5   2013     1     1   FLL        19 9.377853e-05
## 6   2013     1     1   ORD         8 2.826396e-05
## 7   2013     1     1   LAX         7 3.444441e-05
## 8   2013     1     1   DFW        31 2.817951e-04
## 9   2013     1     1   ATL        12 3.996017e-05
## 10  2013     1     1   DTW        16 1.157257e-04
## # ... with 131,096 more rows
…
