…
For each destination, compute the total minutes of delay. For each, flight, compute the proportion of the total delay for its destination.

flights %>% 
  filter(!is.na(arr_delay), arr_delay > 0) %>%  
  group_by(dest) %>%
  mutate(total_delay = sum(arr_delay),
         prop_delay = arr_delay / sum(arr_delay))

## Source: local data frame [133,004 x 21]
## Groups: dest [103]
## 
##     year month   day dep_time sched_dep_time dep_delay arr_time
##    <int> <int> <int>    <int>          <int>     <dbl>    <int>
## 1   2013     1     1      517            515         2      830
## 2   2013     1     1      533            529         4      850
## 3   2013     1     1      542            540         2      923
## 4   2013     1     1      554            558        -4      740
## 5   2013     1     1      555            600        -5      913
## 6   2013     1     1      558            600        -2      753
## 7   2013     1     1      558            600        -2      924
## 8   2013     1     1      559            600        -1      941
## 9   2013     1     1      600            600         0      837
## 10  2013     1     1      602            605        -3      821
## # ... with 132,994 more rows, and 14 more variables: sched_arr_time <int>,
## #   arr_delay <dbl>, carrier <chr>, flight <int>, tailnum <chr>,
## #   origin <chr>, dest <chr>, air_time <dbl>, distance <dbl>, hour <dbl>,
## #   minute <dbl>, time_hour <dttm>, total_delay <dbl>, prop_delay <dbl>

Alternatively, consider the delay as relative to the minimum delay for any flight to that destination. Now all non-cancelled flights have a proportion.

flights %>% 
  filter(!is.na(arr_delay), arr_delay > 0) %>%  
  group_by(dest) %>%
  mutate(total_delay = sum(arr_delay - min(arr_delay)),
         prop_delay = arr_delay / sum(arr_delay))

## Source: local data frame [133,004 x 21]
## Groups: dest [103]
## 
##     year month   day dep_time sched_dep_time dep_delay arr_time
##    <int> <int> <int>    <int>          <int>     <dbl>    <int>
## 1   2013     1     1      517            515         2      830
## 2   2013     1     1      533            529         4      850
## 3   2013     1     1      542            540         2      923
## 4   2013     1     1      554            558        -4      740
## 5   2013     1     1      555            600        -5      913
## 6   2013     1     1      558            600        -2      753
## 7   2013     1     1      558            600        -2      924
## 8   2013     1     1      559            600        -1      941
## 9   2013     1     1      600            600         0      837
## 10  2013     1     1      602            605        -3      821
## # ... with 132,994 more rows, and 14 more variables: sched_arr_time <int>,
## #   arr_delay <dbl>, carrier <chr>, flight <int>, tailnum <chr>,
## #   origin <chr>, dest <chr>, air_time <dbl>, distance <dbl>, hour <dbl>,
## #   minute <dbl>, time_hour <dttm>, total_delay <dbl>, prop_delay <dbl>
…
I could also try a z-score. Though the sd and mean will be affected by large delays.

flights %>%
  filter(!is.na(air_time)) %>%
  group_by(dest) %>%
  mutate(air_time_mean = mean(air_time),
         air_time_sd = sd(air_time),
         z_score = (air_time - air_time_mean) / air_time_sd) %>%
  arrange(z_score) %>%
  select(z_score, air_time_mean, air_time_sd, air_time, dep_time, sched_dep_time, arr_time, sched_arr_time)

## Adding missing grouping variables: `dest`

## Source: local data frame [327,346 x 9]
## Groups: dest [104]
## 
##     dest   z_score air_time_mean air_time_sd air_time dep_time
##    <chr>     <dbl>         <dbl>       <dbl>    <dbl>    <int>
## 1    MSP -4.899222     150.57368   11.751595       93     1558
## 2    ATL -4.884688     112.93045    9.812387       65     1709
## 3    GSP -4.722429      93.39494    8.130337       55     2040
## 4    BNA -4.049143     114.38215   10.960876       70     1914
## 5    CVG -3.984799      95.96510    8.523668       62     1359
## 6    BOS -3.627930      38.95300    4.948552       21     1450
## 7    PBI -3.565385     145.15045   11.261183      105     1559
## 8    RIC -3.495433      53.99829    5.435177       35     1812
## 9    BUF -3.389016      55.72954    5.231471       38     2307
## 10   SEA -3.374390     327.74492   15.630948      275     1533
## # ... with 327,336 more rows, and 3 more variables: sched_dep_time <int>,
## #   arr_time <int>, sched_arr_time <int>
…
